{
    "buyers": "2",
    "success": true,
    "result": {
      "isClick": true,
      "id": "424324343",
      "ads": [
        {
          "id": 1,
          "name": "Nasa",
          "logo": "https://en.wikipedia.org/wiki/NASA_insignia#/media/File:NASA_logo.svg",
          "site": "Nasa Site",
          "url": "https://www.nasa.gov/",
          "title": "National Aeronautics and Space Administration",
          "description": "NASA.gov brings you the latest news, images and videos from America's space agency, pioneering the future in space exploration, scientific discovery and aeronautics research."
        },
        {
          "id": 2,
          "name": "WWF",
          "logo": "https://en.wikipedia.org/wiki/World_Wide_Fund_for_Nature#/media/File:WWF_logo.svg",
          "site": "WWF Site",
          "url": "https://www.worldwildlife.org/",
          "title": "World Wide Fund for Nature",
          "description": "World Wildlife Fund - The leading organization in wildlife conservation and endangered species. Learn how you can help WWF make a difference. "
        }
      ]
    }
  }