{
    "flows": [
        {
            "device": "mobile",
            "pages": [
                {
                    "id": "page_1",
                    "steps": [
                        {
                            "view": "view_1",
                            "field": "userzipcode"
                        },
                        {
                            "view": "view_2",
                            "field": "category"
                        },
                        {
                            "view": "view_3",
                            "field": "subcategory"
                        }
                    ],
                    "views": [
                        {
                            "id": "view_1",
                            "labels": [
                                {
                                    "selector": "._view-label",
                                    "html": "Get estimates from top-rated, trusted <span style='color:#FFD103;'>local professionals</span> for your <span class='_cat-name'  style='color:#FFD103;'></span> project."
                                }
                            ],
                            "contents": [
                                "zip"
                            ],
                            "events": [
                                {
                                    "type": "OnSubmit",
                                    "action": "Next"
                                }
                            ]
                        },
                        {
                            "id": "view_2",
                            "labels": [
                                {
                                    "selector": "._view-label",
                                    "html" : "Get estimates from top-rated, trusted <span style='color:#FFD103;'>local professionals</span> in  <span class='_zipcode'>your local area</span>.",
                                    "class_zipcode": "._zipcode",
                                    "placeholders" : [
                                        {
                                            "variable":"userzipcode",
                                            "selector": "._zipcode"
                                        }
                                    ]
                                }
                            ],
                            "contents": [
                                "topCat",
                                "otherCat"
                            ],
                            "events": [
                                {
                                    "type": "OnSubmit",
                                    "action": "Next"
                                },
                                {
                                    "type": "OnSetValue",
                                    "field": "category",
                                    "frequency": "once",
                                    "action": "CMP",
                                    "parameters": [
                                        "primary",
                                        "cs",
                                        "utm_source==Google",
                                        "p2",
                                        "3000"
                                    ]
                                }
                            ]
                        },
                        {
                            "id": "view_3",
                            "labels": [
                                {
                                    "selector": "._view-head",
                                    "class_category": "._category",
                                    "class_zipcode": "._zipcode",
                                    "html": "Get estimates from top-rated, trusted <span style='color:#FFD103;'><span class='_category'>{Category}</span> professionals</span> in <span class='_zipcode'>{Zip}</span>.",
                                    "placeholders" : [
                                        {
                                            "variable":"userzipcode",
                                            "selector": "._zipcode"
                                        },
                                        {
                                            "variable":"category_name",
                                            "selector": "._category"
                                        } 
                                    ]
                                },
                                {
                                    "selector": "._view-sub-label",
                                    "html": "Which of the following best matches your project?"
                                }
                            ],
                            "contents": [
                                "subCat"
                            ],
                            "events": [
                                {
                                    "type": "OnSubmit",
                                    "action": "CMP",
                                    "parameters": [
                                        "primary",
                                        "cs",
                                        "utm_source==Google",
                                        "p2",
                                        "3000"
                                    ]
                                }
                            ]
                        }
                    ]
                },
                {
                    "id": "page_2",
                    "steps": [
                        {
                            "view": "view_4",
                            "field": "consumerSelect"
                        },
                        {
                            "view": "view_5",
                            "field": "firstName"
                        },
                        {
                            "view": "view_5",
                            "field": "lastName"
                        },
                        {
                            "view": "view_6",
                            "field": "email"
                        },
                        {
                            "view": "view_6",
                            "field": "phone"
                        },
                        {
                            "view": "view_6",
                            "field": "address"
                        },
                        {
                            "view": "view_7",
                            "field": "commonQuestions"
                        }
                    ],
                    "views": [
                        {
                            "id": "view_4",
                            "contents": [
                                "consumerSelect"
                            ]
                        },
                        {
                            "id": "view_5",
                            "contents": [
                                "questions"
                            ],
                            "events": [
                                {
                                    "type": "OnSubmit",
                                    "action": "LMP",
                                    "parameters": [ "primary" ]
                                }
                            ]
                        },
                        {
                            "id": "view_6",
                            "contents": [
                                "contactQuestions"
                            ],
                            "events": [
                                {
                                    "type": "OnSubmit",
                                    "action": "Next"
                                }
                            ]
                        },
                        {
                            "id": "view_7",
                            "contents": [
                                "businessSelect"
                            ],
                            "events": [
                                {
                                    "type": "OnSubmit",
                                    "action": "Next"
                                }
                            ]
                        },
                        {
                            "id": "view_8",
                            "contents": [
                                "questions"
                            ],
                            "events": [
                                {
                                    "type": "OnSubmit",
                                    "action": "LMP",
                                    "parameters": [ "leadDetails" ]
                                }
                            ]
                        },
                        {
                            "id": "view_9",
                            "contents": [
                                "xSellTopCat",
                                "xSellAllCat"
                            ],
                            "events": [
                                {
                                    "type": "OnSubmit",
                                    "action": "Next"
                                }
                            ]
                        },
                        {
                            "id": "view_10",
                            "contents": [
                                "xSellQuestions"
                            ],
                            "events": [
                                {
                                    "type": "OnSubmit",
                                    "action": "LMP",
                                    "parameters": [ "additional" ]
                                },
                                {
                                    "type": "OnSubmit",
                                    "action": "CMP",
                                    "parameters": [
                                        "payoff",
                                        "view_11"
                                    ]
                                }
                            ]
                        },
                        {
                            "id": "view_11",
                            "contents": [
                                "payoff"
                            ],
                            "events": [
                                {
                                    "type": "OnLoad",
                                    "action": "CMP",
                                    "parameters": [ "instant" ]
                                }
                            ]
                        }
                    ]
                }
            ]
        },
        {
            "device": "desktop",
            "routes": [
                {
                    "path": "view_1"
                }, 
                {
                    "path": "view_2"
                },
                {
                    "path": "view_3"
                },
                {
                    "path": "view_4"
                }
            ],
            "fields": [
                {
                    "view": "view_1",
                    "isRequired": true,
                    "type": "zip",
                    "field": "userzipcode"
                },
                {
                    "view": "view_2",
                    "isRequired": true,
                    "type": "category",
                    "field": "category"
                },
                {
                    "view": "view_3",
                    "isRequired": true,
                    "type": "category",
                    "field": "subcategory"
                },
                {
                    "view": "loading",
                    "field": "loader"
                },
                {
                    "view": "cs",
                    "field": "consumerSelect"
                },
                {
                    "view": "view_4",
                    "isRequired": true,
                    "type":  "name",
                    "field": "firstName"
                },
                {
                    "view": "view_4",
                    "isRequired": true,
                    "type": "name",
                    "field": "lastName"
                },
                {
                    "view": "view_5",
                    "isRequired": true,
                    "type": "email",
                    "field": "email"
                },
                {
                    "view": "view_5",
                    "isRequired": true,
                    "type": "phone",
                    "field": "phone"
                },
                {
                    "view": "view_5",
                    "isRequired": true,
                    "type": "address",
                    "field": "address"
                },
                {
                    "view": "view_6",
                    "isRequired": true,
                    "type": "ownership",
                    "field": "ownership"
                },
                {
                    "view": "view_6",
                    "isRequired": true,
                    "type": "radio",
                    "field": "projectStatus"
                },
                {
                    "view": "view_7",
                    "isRequired": true,
                    "type": "radio",
                    "field": "TimeFrame"
                },
                {
                    "view": "view_7",
                    "isRequired": false,
                    "type": "textarea",
                    "field": "AdditionalInfo"
                },
                {
                    "view": "view_8",
                    "isRequired": true,
                    "type": "checkbox",
                    "field": "xSellCats"
                },
                {
                    "view": "view_9",
                    "isRequired": true,
                    "type": "radio",
                    "field": "xSellSubCats"
                },
                {
                    "view": "thx",
                    "field": "thankYou"
                }
            ],
            "views": [
                {
                    "id": "view_1",
                    "labels": [
                        {
                            "selector": "._view-label",
                            "html": "Get estimates from top-rated, trusted <span style='color:#FFD103;'>local professionals</span> for your <span class='_cat-name'  style='color:#FFD103;'></span> project."
                        }
                    ],
                    "contents": [
                        "zip"
                    ],
                    "events": [
                        {
                            "type": "OnSubmit",
                            "action": "Next"
                        }
                    ]
                },
                {
                    "id": "view_2",
                    "labels": [
                        {
                            "selector": "._view-label",
                            "html": "Get estimates from top-rated, trusted <span style='color:#FFD103;'>local professionals</span> in  <span class='_zipcode'>your local area</span>.",
                            "class_zipcode": "._zipcode",
                            "placeholders" : [
                                {
                                    "variable":"userzipcode",
                                    "selector": "._zipcode"
                                }
                            ]
                        }
                    ],
                    "contents": [
                        "topCat",
                        "otherCat"
                    ],
                    "events": [
                        {
                            "type": "OnSubmit",
                            "action": "Next"
                        }
                    ] 
                },
                {
                    "id": "view_3",
                    "labels": [
                        {
                            "selector": "._view-label",
                            "html": "Get estimates from top-rated, trusted <span style='color:#FFD103;'><span class='_category'>local</span> professionals</span> in <span class='_zipcode'>your area</span>.",
                            "placeholders" : [
                                {
                                    "variable":"userzipcode",
                                    "selector": "._zipcode"
                                },
                                {
                                    "variable":"category_name",
                                    "selector": "._category"
                                }
                            ]
                        },
                        {
                            "selector": "._view-sub-label",
                            "html": "Which of the following best matches your project?"
                        }
                    ],
                    "contents": [
                        "subCat"
                    ],
                    "events": [
                        {
                            "type": "OnSubmit",
                            "action": "Next"
                        },
                        {
                            "type": "OnSetValue",
                            "field": "subcategory",
                            "frequency": "once",
                            "action": "CMP",
                            "parameters": [
                                "primary",
                                "cs",
                                "utm_source==Google",
                                "page_2",
                                "3000"
                            ]
                        }
                    ]
                },
                {
                    "id": "loading",
                    "contents": [
                        "loader"
                    ],
                    "labels": [
                        {
                            "selector": "._view-label",
                            "html": "Sit back while we match  you with professionals in <span class='_city'>your location</span>, <span class='_state'>CA</span> <span class='_zip'>94102</span>.",
                            "class_city": "._city",
                            "class_zipcode": "._zip",
                            "class_state": "._state",
                            "placeholders" : [
                                {
                                    "variable":"userzipcode",
                                    "selector": "._zipcode"
                                },
                                {
                                    "variable":"city",
                                    "selector": "._city"
                                },
                                {
                                    "variable":"state",
                                    "selector": "._state"
                                } 
                            ]
                        }
                    ]
                },
                {
                    "id": "cs",
                    "contents": [
                        "consumerSelect"
                    ]
                },
                {
                    "id": "view_4",
                    "contents": [
                        "contactQuestions"
                    ],
                    "labels": [
                        {
                            "selector": "._view-label",
                            "html": "Get estimates from top-rated, trusted <i class='_category' style='color:#FFD103;'> local professionals</i> in <span class='_zipcode'>your location</span>",
                            "placeholders" : [
                                { "variable": "userzipcode", "selector": "._zipcode" },
                                { "variable": "category_name", "selector": "._category" }
                            ]
                        }
                    ],
                    "events": [
                        {
                            "type": "OnSubmit",
                            "action": "Next"
                        }
                    ]
                },
                {
                    "id": "view_5",
                    "contents": [
                        "contactQuestions"
                    ],
                    "labels": [
                        {
                            "selector": "._view-label",
                            "html": "Get estimates from top-rated, trusted <i class='_category' style='color:#FFD103;'>local professionals</i> in <span class='_zipcode'>your location</span>",
                            "placeholders" : [
                                { "variable": "userzipcode", "selector": "._zipcode" },
                                { "variable": "category_name", "selector": "._category" } 
                            ]
                        }
                    ],
                    "events": [
                        {
                            "type": "OnSubmit",
                            "action": "LMP",
                            "parameters": [
                                "primary"
                            ]
                        }
                    ]
                },
                {
                    "id": "view_6",
                    "contents": [
                        "contactQuestions"
                    ],
                    "labels": [
                        {
                            "selector": "._view-label",
                            "html": "Get estimates from top-rated, trusted <i class='_category' style='color:#FFD103;'> local </i> professionals in <span class='_zipcode'>your area</span>",
                            "placeholders" : [
                                { "variable": "userzipcode", "selector": "._zipcode" },
                                { "variable": "category_name", "selector": "._category" }
                            ]
                        },
                        {
                            "selector": "._view-sub-label",
                            "html": "Which of the following best matches your project?"
                        }
                    ],
                    "events": [
                        {
                            "type": "OnSubmit",
                            "action": "Next"
                        }
                    ]
                },
                {
                    "id": "view_7",
                    "contents": [
                        "contactQuestions"
                    ],
                    "labels": [
                        {
                            "selector": "._view-label",
                            "html": "Get estimates from top-rated, trusted <i class='_category' style='color:#FFD103;'> local </i> professionals in <span class='_zipcode'>your area</span>",
                            "placeholders": [
                                { "variable": "userzipcode", "selector": "._zipcode" },
                                { "variable": "category_name", "selector": "._category" }
                            ]
                        },
                        {
                            "selector": "._view-sub-label",
                            "html": "Which of the following best matches your project?"
                        }
                    ],
                    "events": [
                        {
                            "type": "OnSubmit",
                            "action": "Next"
                        }
                    ]
                },
                {
                    "id": "view_8",
                    "contents": [
                        "xSellTopCat"
                    ],
                    "labels": [
                        {
                            "selector": "._view-label",
                            "html": "Awesome! We found estimates from the best contractors in your area. <span style='color: #FFD103;'>While you're waiting, can we get you estimates for anything else?</span>"
                        },
                        {
                            "selector": "._view-sub-label",
                            "html": "Which of the following best matches your project?"
                        },
                        {
                            "selector": "._label",
                            "html": "Popular categories"
                        }
                    ],
                    "events": [
                        {
                            "type": "OnSubmit",
                            "action": "Next"
                        }
                    ]
                },
                {
                    "id": "view_9",
                    "contents": [
                        "xSellSubCat"
                    ],
                    "labels": [
                        {
                            "selector": "._view-label",
                            "html": "Get estimates from top-rated, trusted <span style='color:#FFD103;'><span class='_category'> local </span> professionals </span> in <span class='_zipcode'>your area</span>",
                            "placeholders": [
                                { "variable": "userzipcode", "selector": "._zipcode" },
                                { "variable": "category_name", "selector": "._category" }
                            ]
                        },
                        {
                            "selector": "._view-sub-label",
                            "html": "Which of the following best matches your project?"
                        },
                        {
                            "selector": "._label",
                            "html": "Select type of <span class='_category'>chosen category</span>",
                            "placeholders": [
                                { "variable": "category_name", "selector": "._category" }
                            ]
                        }
                    ],
                    "events": [
                        {
                            "type": "OnSubmit",
                            "action": "Next"
                        }
                    ]
                },
                {
                    "id": "thx",
                    "contents": [
                        "thx"
                    ],
                    "labels": [
                        {
                            "selector": "._view-label",
                            "html": "Get estimates from top-rated, trusted <span style='color:#FFD103;'><span class='_category'> local </span> professionals </span> in <span class='_zipcode'>your area</span>",
                            "placeholders": [
                                {
                                    "variable": "userzipcode",
                                    "selector": "._zipcode"
                                },
                                {
                                    "variable": "category_name",
                                    "selector": "._category"
                                }
                            ]
                        },
                        {
                            "selector": "._view-sub-label",
                            "html": "Which of the following best matches your project?"
                        },
                        {
                            "selector": "._label",
                            "html": "Select type of <span class='_category'>chosen category</span>",
                            "placeholders": [
                                {
                                    "variable": "category_name",
                                    "selector": "._category"
                                }
                            ]
                        }
                    ],
                    "events": [
                        
                    ]
                },
                {
                    "id": "view_11",
                    "contents": [
                        "payoff"
                    ],
                    "events": [
                        {
                            "type": "OnLoad",
                            "action": "CMP",
                            "parameters": [
                                "instant"
                            ]
                        }
                    ]
                }
            ]
        }
    ],
    "data": {
        "categories": [
            {
                "name": "Test 1",
                "key": "category",
                "id": "76",
                "isTop": true,
                "subCategories": [
                    {
                        "name": "Test Sub Cat 1",
                        "key": "subcategory",
                        "id": "761"
                    },
                    {
                        "name": "Test Sub Cat 2",
                        "key": "subcategory",
                        "id": "762"
                    }
                ]
            },
            {
                "name": "HVAC",
                "key": "category",
                "id": "61",
                "isTop": true,
                "subCategories": [
                    {
                        "name": "HVAC 1",
                        "key": "subcategory",
                        "id": "611"
                    },
                    {
                        "name": "HVAC 2",
                        "key": "subcategory",
                        "id": "612"
                    }
                ]
            },
            {
                "name": "Painting",
                "key": "category",
                "id": "3",
                "isTop": true,
                "subCategories": [
                    {
                        "name": "Painting 1",
                        "key": "subcategory",
                        "id": "31"
                    },
                    {
                        "name": "Painting 2",
                        "key": "subcategory",
                        "id": "32"
                    }
                ]
            },
            {
                "name": "Additions & Remodels",
                "key": "category",
                "id": "5",
                "isTop": false,
                "subCategories": [
                    {
                        "name": "Additions - Closet",
                        "key": "subcategory",
                        "id": "100"
                    },
                    {
                        "name": "Additions - Garage",
                        "key": "subcategory",
                        "id": "101"
                    }
                ]
            }
        ],
        "catQuestions": [
            {
                "id": "100",
                "label": "Additions - Closet",
                "items": [
                    {
                        "label": "How big is the closet in sqft?",
                        "id": "100.1",
                        "type": "number"
                    },
                    {
                        "label": "What floor?",
                        "id": "100.2",
                        "type": "radio",
                        "answers": [
                            "1",
                            "2",
                            "3"
                        ],
                        "default": "2"
                    },
                    {
                        "label": "What is your budget?",
                        "id": "100.3",
                        "type": "select",
                        "answers": [
                            "less than $9,000",
                            "$10,000 - $20,000",
                            "$21,000 - $30,0000",
                            "$30,000+"
                        ]
                    }
                ]
            },
            {
                "id": "61",
                "label": "HVAC",
                "items": [
                    {
                        "label": "Air Change per hour",
                        "id": "61.1",
                        "type": "number"
                    },
                    {
                        "label": "Cooling or Heating?",
                        "id": "61.2",
                        "type": "radio",
                        "answers": [
                            "Cooling",
                            "Heating",
                            "Both"
                        ],
                        "default": "Both"
                    }
                ]
            }
        ],
        "contactQuestions": [
            {
                "label": "First name",
                "id": "firstName",
                "type": "name",
                "placeholder": "John",
                "error": "* Please provide a valid first name"
            },
            {
                "label": "Last name",
                "id": "lastName",
                "type": "name",
                "placeholder": "Doe",
                "error": "* Please provide a valid last name"
            },
            {
                "label": "Phone Number",
                "id": "phone",
                "type": "phone",
                "placeholder": "(555) 555-5555",
                "error": "* Please provide a valid phone number"
            },
            {
                "label": "Email",
                "id": "email",
                "type": "email",
                "placeholder": "e.g., johnsmith@email.com",
                "error": "* Please provide a valid email address"
            },
            {
                "label": "Address",
                "id": "address",
                "type": "address",
                "placeholder": "123 improvement st",
                "error": "* Please provide a valid street address"
            },
            {
                "label": "What is you zipcode?",
                "id": "userzipcode",
                "type": "number"
            },
            {
                "label": "Home ownership",
                "id": "ownership",
                "type": "radio",
                "answers": [
                    {
                        "label": "I own this home",
                        "value": "OwnHome",
                        "checked": true
                    },
                    {
                        "label": "This is commercial area ",
                        "value": "CommercialProperty",
                        "checked": false
                    }
                ]
            },
            {
                "label": "Project Status",
                "id": "projectStatus",
                "type": "radio",
                "answers": [
                    {
                        "label": "I'm ready to hire",
                        "value": "ReadyToHire",
                        "checked": true
                    },
                    {
                        "label": "I'm planning and budgeting ",
                        "value": "PlanningAndBudgeting",
                        "checked": false
                    }
                ]
            },
            {
                "label": "Desired completion date",
                "id": "TimeFrame",
                "type": "radio",
                "answers": [
                    {
                        "label": "Time is flexible",
                        "value": "Time is flexible",
                        "checked": false
                    },
                    {
                        "label": "1-2 weeks",
                        "value": "1-2 weeks",
                        "checked": false
                    },
                    {
                        "label": "3-4 weeks",
                        "value": "3-4 weeks",
                        "checked": true
                    },
                    {
                        "label": "5-6 weeks",
                        "value": "5-6 weeks",
                        "checked": false
                    },
                    {
                        "label": "7-8 weeks",
                        "value": "7-8 weeks",
                        "checked": false
                    },
                    {
                        "label": "9-12 weeks",
                        "value": "9-12 weeks",
                        "checked": false
                    }
                ]
            },
            {
                "label": "Describe your project (optional)",
                "id": "AdditionalInfo",
                "type": "textarea",
                "placeholder": "I need new painting work for..."
            }
        ]
    }
}